<svg xmlns="http://www.w3.org/2000/svg" xmlns:xlink="http://www.w3.org/1999/xlink" width="31.515" height="22" viewBox="0 0 31.515 22">
  <defs>
    <linearGradient id="linear-gradient" x1="-1.33" y1="1.891" x2="2.423" y2="-0.914" gradientUnits="objectBoundingBox">
      <stop offset="0" stop-color="#b8c408"/>
      <stop offset="1" stop-color="#b8c408"/>
      <stop offset="1" stop-color="#e84892"/>
    </linearGradient>
  </defs>
  <g id="Сгруппировать_1620" data-name="Сгруппировать 1620" transform="translate(-1494.418 -39.941)">
    <path id="Контур_884" data-name="Контур 884" d="M1510.338,56.3a.936.936,0,0,0,1.216,0l5.261-4.466A.939.939,0,1,0,1515.6,50.4l-3.745,3.179V40.88a.939.939,0,1,0-1.879,0V53.523L1506.3,50.4a.939.939,0,1,0-1.217,1.431Z" transform="translate(-0.626)" fill="url(#linear-gradient)"/>
    <path id="Контур_885" data-name="Контур 885" d="M1524.994,52.607a.939.939,0,0,0-.939.939v7.282H1496.3V53.546a.939.939,0,1,0-1.879,0v9.161h31.515V53.546A.939.939,0,0,0,1524.994,52.607Z" transform="translate(0 -0.767)" fill="url(#linear-gradient)"/>
  </g>
</svg>
