<svg xmlns="http://www.w3.org/2000/svg" width="24.981" height="32.772" viewBox="0 0 24.981 32.772">
  <g id="Сгруппировать_1262" data-name="Сгруппировать 1262" transform="translate(-1850.849 -128.812)">
    <path id="Контур_452" data-name="Контур 452" d="M1872.13,161.584h-21.282V132.166h2.52v26.9h18.762Z" fill="#7d7d7d"/>
    <path id="Контур_453" data-name="Контур 453" d="M1855.889,128.812v27.619l19.941.052V128.864Zm5.419,23.254h-2.634v-2.633h2.634Zm0-5.462h-2.634V143.97h2.634Zm0-5.463h-2.634v-2.633h2.634Zm0-5.462h-2.634v-2.634h2.634Zm11.979,16.387H1863v-2.633h10.286Zm0-5.462H1863V143.97h10.286Zm0-5.463H1863v-2.633h10.286Zm0-5.462H1863v-2.634h10.286Z" fill="#7d7d7d"/>
  </g>
</svg>
