<svg xmlns="http://www.w3.org/2000/svg" width="27.619" height="27.618" viewBox="0 0 27.619 27.618">
  <path id="Контур_451" data-name="Контур 451" d="M1849.53,741.346v27.618h27.619V741.346ZM1862,761.306a2.219,2.219,0,0,1-3.136,0l-5.965-5.964,2.353-2.353,5.18,5.181,11-11,2.353,2.353Z" transform="translate(-1849.53 -741.346)" fill="#7d7d7d"/>
</svg>
