<svg xmlns="http://www.w3.org/2000/svg" xmlns:xlink="http://www.w3.org/1999/xlink" width="139.837" height="119.092" viewBox="0 0 139.837 119.092">
  <defs>
    <linearGradient id="linear-gradient" x1="-1.289" y1="1.772" x2="1.496" y2="-0.208" gradientUnits="objectBoundingBox">
      <stop offset="0" stop-color="#5f4f9c"/>
      <stop offset="0.389" stop-color="#914d98"/>
      <stop offset="1" stop-color="#e74a92"/>
    </linearGradient>
  </defs>
  <rect id="Прямоугольник_252" data-name="Прямоугольник 252" width="139.837" height="119.092" fill="url(#linear-gradient)"/>
</svg>
