<svg xmlns="http://www.w3.org/2000/svg" width="38" height="37.131" viewBox="0 0 38 37.131">
  <g id="Сгруппировать_1238" data-name="Сгруппировать 1238" transform="translate(0.5 0.5)">
    <rect id="Прямоугольник_281" data-name="Прямоугольник 281" width="37" height="36.131" transform="translate(37 36.131) rotate(180)" fill="none" stroke="#6bbbe1" stroke-miterlimit="10" stroke-width="1"/>
    <g id="Сгруппировать_1237" data-name="Сгруппировать 1237" transform="translate(7.222 6.437)">
      <g id="Сгруппировать_1234" data-name="Сгруппировать 1234" transform="translate(4.285 2.142)">
        <g id="Сгруппировать_1231" data-name="Сгруппировать 1231" transform="translate(5.464 5.465)">
          <path id="Контур_485" data-name="Контур 485" d="M1408.273,574.054l-.8-.8L1396.027,584.7l.8.8,11.443-11.445Z" transform="translate(-1396.027 -573.253)" fill="#6bbbe1"/>
        </g>
        <g id="Сгруппировать_1232" data-name="Сгруппировать 1232" transform="translate(2.731 2.732)">
          <path id="Контур_486" data-name="Контур 486" d="M1406.046,571.823l-.8-.8L1393.8,582.468l.8.8,11.446-11.446Z" transform="translate(-1393.797 -571.023)" fill="#6bbbe1"/>
        </g>
        <g id="Сгруппировать_1233" data-name="Сгруппировать 1233">
          <path id="Контур_487" data-name="Контур 487" d="M1403.813,569.594l-.8-.8-11.446,11.445.8.8,11.443-11.446Z" transform="translate(-1391.568 -568.793)" fill="#6bbbe1"/>
        </g>
      </g>
      <g id="Сгруппировать_1235" data-name="Сгруппировать 1235" transform="translate(0 15.436)">
        <path id="Контур_488" data-name="Контур 488" d="M1388.784,588.325a.589.589,0,0,1-.145.018h0a.573.573,0,0,1-.4-.165h0a.567.567,0,0,1-.147-.549l2.027-7.568h0a.57.57,0,0,1,.4-.4h0a.563.563,0,0,1,.547.146l5.54,5.54h0a.57.57,0,0,1,.146.548h0a.564.564,0,0,1-.4.4l-7.568,2.029Zm6.325-2.871-4.15-4.15-1.52,5.671,5.67-1.521Z" transform="translate(-1388.071 -579.642)" fill="#6bbbe1"/>
      </g>
      <g id="Сгруппировать_1236" data-name="Сгруппировать 1236" transform="translate(17.132)">
        <path id="Контур_489" data-name="Контур 489" d="M1409.057,573.248l-6.206-6.2-.8.8,6.2,6.2.8-.8Z" transform="translate(-1402.052 -567.045)" fill="#6bbbe1"/>
      </g>
    </g>
  </g>
</svg>
