<svg xmlns="http://www.w3.org/2000/svg" width="38" height="37.131" viewBox="0 0 38 37.131">
  <g id="Сгруппировать_1217" data-name="Сгруппировать 1217" transform="translate(0.5 0.5)">
    <rect id="Прямоугольник_278" data-name="Прямоугольник 278" width="37" height="36.131" transform="translate(37 36.131) rotate(180)" fill="none" stroke="#6bbbe1" stroke-miterlimit="10" stroke-width="1"/>
    <path id="Контур_478" data-name="Контур 478" d="M1386.27,358.468v16.857h26.971V358.468Zm13.485,10.1-11.163-8.882h22.329Zm-4.66-2.153-7.609,6.905V360.358Zm.964.767,3.7,2.94,3.686-2.932,7.643,6.92h-22.659Zm8.347-.76,7.618-6.062v12.962Z" transform="translate(-1381.255 -349.16)" fill="#6bbbe1"/>
  </g>
</svg>
